{
    "response": {
        "status": "ok",
        "userTier": "developer",
        "total": 2240444,
        "startIndex": 1,
        "pageSize": 10,
        "currentPage": 1,
        "pages": 224045,
        "orderBy": "newest",
        "results": [
            {
                "id": "football/live/2021/jan/03/newcastle-v-leicester-premier-league-live",
                "type": "liveblog",
                "sectionId": "football",
                "sectionName": "Football",
                "webPublicationDate": "2021-01-03T15:58:24Z",
                "webTitle": "Newcastle v Leicester: Premier League – live!",
                "webUrl": "https://www.theguardian.com/football/live/2021/jan/03/newcastle-v-leicester-premier-league-live",
                "apiUrl": "https://content.guardianapis.com/football/live/2021/jan/03/newcastle-v-leicester-premier-league-live",
                "isHosted": false,
                "pillarId": "pillar/sport",
                "pillarName": "Sport"
            },
            {
                "id": "world/live/2021/jan/03/coronavirus-live-news-uk-covid-19-latest-news-schools-vaccine-boris-johnson",
                "type": "liveblog",
                "sectionId": "world",
                "sectionName": "World news",
                "webPublicationDate": "2021-01-03T15:58:09Z",
                "webTitle": "Covid live news: Starmer calls for immediate new national restrictions; UK records more than 50,000 new cases again",
                "webUrl": "https://www.theguardian.com/world/live/2021/jan/03/coronavirus-live-news-uk-covid-19-latest-news-schools-vaccine-boris-johnson",
                "apiUrl": "https://content.guardianapis.com/world/live/2021/jan/03/coronavirus-live-news-uk-covid-19-latest-news-schools-vaccine-boris-johnson",
                "isHosted": false,
                "pillarId": "pillar/news",
                "pillarName": "News"
            },
            {
                "id": "politics/2021/jan/03/keir-starmer-calls-for-immediate-lockdown-in-england-as-covid-cases-soar",
                "type": "article",
                "sectionId": "politics",
                "sectionName": "Politics",
                "webPublicationDate": "2021-01-03T15:48:38Z",
                "webTitle": "Keir Starmer calls for immediate lockdown in England as Covid cases soar",
                "webUrl": "https://www.theguardian.com/politics/2021/jan/03/keir-starmer-calls-for-immediate-lockdown-in-england-as-covid-cases-soar",
                "apiUrl": "https://content.guardianapis.com/politics/2021/jan/03/keir-starmer-calls-for-immediate-lockdown-in-england-as-covid-cases-soar",
                "isHosted": false,
                "pillarId": "pillar/news",
                "pillarName": "News"
            },
            {
                "id": "artanddesign/2021/jan/03/david-larkin-obituary",
                "type": "article",
                "sectionId": "artanddesign",
                "sectionName": "Art and design",
                "webPublicationDate": "2021-01-03T15:48:19Z",
                "webTitle": "David Larkin obituary",
                "webUrl": "https://www.theguardian.com/artanddesign/2021/jan/03/david-larkin-obituary",
                "apiUrl": "https://content.guardianapis.com/artanddesign/2021/jan/03/david-larkin-obituary",
                "isHosted": false,
                "pillarId": "pillar/arts",
                "pillarName": "Arts"
            },
            {
                "id": "football/live/2021/jan/03/chelsea-v-manchester-city-premier-league-live",
                "type": "liveblog",
                "sectionId": "football",
                "sectionName": "Football",
                "webPublicationDate": "2021-01-03T15:41:12Z",
                "webTitle": "Chelsea v Manchester City: Premier League – live!",
                "webUrl": "https://www.theguardian.com/football/live/2021/jan/03/chelsea-v-manchester-city-premier-league-live",
                "apiUrl": "https://content.guardianapis.com/football/live/2021/jan/03/chelsea-v-manchester-city-premier-league-live",
                "isHosted": false,
                "pillarId": "pillar/sport",
                "pillarName": "Sport"
            },
            {
                "id": "environment/2021/jan/03/this-is-where-i-need-to-be-the-uk-women-defying-fishing-stereotypes",
                "type": "article",
                "sectionId": "environment",
                "sectionName": "Environment",
                "webPublicationDate": "2021-01-03T15:33:12Z",
                "webTitle": "'This is where I need to be': the UK women defying fishing stereotypes",
                "webUrl": "https://www.theguardian.com/environment/2021/jan/03/this-is-where-i-need-to-be-the-uk-women-defying-fishing-stereotypes",
                "apiUrl": "https://content.guardianapis.com/environment/2021/jan/03/this-is-where-i-need-to-be-the-uk-women-defying-fishing-stereotypes",
                "isHosted": false,
                "pillarId": "pillar/news",
                "pillarName": "News"
            },
            {
                "id": "commentisfree/2021/jan/03/england-children-schooling-pandemic-schools",
                "type": "article",
                "sectionId": "commentisfree",
                "sectionName": "Opinion",
                "webPublicationDate": "2021-01-03T15:32:08Z",
                "webTitle": "'Open all schools!' 'Close all schools!' What England really needs is creative thinking | John Harris",
                "webUrl": "https://www.theguardian.com/commentisfree/2021/jan/03/england-children-schooling-pandemic-schools",
                "apiUrl": "https://content.guardianapis.com/commentisfree/2021/jan/03/england-children-schooling-pandemic-schools",
                "isHosted": false,
                "pillarId": "pillar/opinion",
                "pillarName": "Opinion"
            },
            {
                "id": "us-news/2021/jan/03/trump-republicans-electoral-college-results-senators-cruz-hawley-romney",
                "type": "article",
                "sectionId": "us-news",
                "sectionName": "US news",
                "webPublicationDate": "2021-01-03T15:27:51Z",
                "webTitle": "'Traitors and patriots': Republican push to keep Trump in power seems doomed",
                "webUrl": "https://www.theguardian.com/us-news/2021/jan/03/trump-republicans-electoral-college-results-senators-cruz-hawley-romney",
                "apiUrl": "https://content.guardianapis.com/us-news/2021/jan/03/trump-republicans-electoral-college-results-senators-cruz-hawley-romney",
                "isHosted": false,
                "pillarId": "pillar/news",
                "pillarName": "News"
            },
            {
                "id": "society/2021/jan/03/vera-carstairs-obituary",
                "type": "article",
                "sectionId": "society",
                "sectionName": "Society",
                "webPublicationDate": "2021-01-03T15:25:26Z",
                "webTitle": "Vera Carstairs obituary",
                "webUrl": "https://www.theguardian.com/society/2021/jan/03/vera-carstairs-obituary",
                "apiUrl": "https://content.guardianapis.com/society/2021/jan/03/vera-carstairs-obituary",
                "isHosted": false,
                "pillarId": "pillar/news",
                "pillarName": "News"
            },
            {
                "id": "football/2021/jan/03/manchester-united-momentum-ole-gunnar-solskjaer-premier-league",
                "type": "article",
                "sectionId": "football",
                "sectionName": "Football",
                "webPublicationDate": "2021-01-03T15:25:01Z",
                "webTitle": "Solskjær’s spirit of unity is building real momentum at Manchester United | Jamie Jackson",
                "webUrl": "https://www.theguardian.com/football/2021/jan/03/manchester-united-momentum-ole-gunnar-solskjaer-premier-league",
                "apiUrl": "https://content.guardianapis.com/football/2021/jan/03/manchester-united-momentum-ole-gunnar-solskjaer-premier-league",
                "isHosted": false,
                "pillarId": "pillar/sport",
                "pillarName": "Sport"
            }
        ]
    }
}